[gd_scene load_steps=3 format=2]

[ext_resource path="res://Entity.tscn" type="PackedScene" id=1]
[ext_resource path="res://scripts/DamagingEntity.gd" type="Script" id=2]

[node name="DamagingEntity" instance=ExtResource( 1 )]
script = ExtResource( 2 )

[node name="Damagers" type="Node2D" parent="." index="0"]
