[gd_scene load_steps=10 format=2]

[ext_resource path="res://scripts/Level.gd" type="Script" id=1]
[ext_resource path="res://Floors.tres" type="TileSet" id=2]
[ext_resource path="res://Orb.tscn" type="PackedScene" id=3]
[ext_resource path="res://SpellTome.tscn" type="PackedScene" id=4]
[ext_resource path="res://GhostGuardian.tscn" type="PackedScene" id=5]
[ext_resource path="res://Knight.tscn" type="PackedScene" id=6]
[ext_resource path="res://Asssassin.tscn" type="PackedScene" id=7]
[ext_resource path="res://Walls.tres" type="TileSet" id=8]
[ext_resource path="res://Stairs.tscn" type="PackedScene" id=9]


[node name="Level01" type="Node2D"]

script = ExtResource( 1 )
next_level = null

[node name="Floors" type="TileMap" parent="." index="0"]

mode = 0
tile_set = ExtResource( 2 )
cell_size = Vector2( 64, 64 )
cell_quadrant_size = 16
cell_custom_transform = Transform2D( 1, 0, 0, 1, 0, 0 )
cell_half_offset = 2
cell_tile_origin = 0
cell_y_sort = false
cell_clip_uv = false
collision_use_kinematic = false
collision_friction = 1.0
collision_bounce = 0.0
collision_layer = 1
collision_mask = 1
occluder_light_mask = 1
format = 1
tile_data = PoolIntArray( 196612, 0, 0, 196613, 0, 0, 196614, 0, 0, 196615, 0, 0, 196616, 0, 0, 196618, 0, 0, 196619, 0, 0, 196620, 0, 0, 196621, 0, 0, 196622, 0, 0, 196624, 0, 0, 196625, 0, 0, 196626, 0, 0, 196627, 0, 0, 196628, 0, 0, 196629, 0, 0, 196630, 0, 0, 196631, 0, 0, 196632, 0, 0, 196633, 0, 0, 196634, 0, 0, 196635, 0, 0, 196636, 0, 0, 262148, 0, 0, 262149, 0, 0, 262150, 0, 0, 262151, 0, 0, 262152, 0, 0, 262154, 0, 0, 262155, 0, 0, 262156, 0, 0, 262157, 0, 0, 262158, 0, 0, 262160, 0, 0, 262161, 0, 0, 262162, 0, 0, 262163, 0, 0, 262164, 0, 0, 262165, 0, 0, 262166, 0, 0, 262167, 0, 0, 262168, 0, 0, 262169, 0, 0, 262170, 0, 0, 262171, 0, 0, 262172, 0, 0, 327684, 0, 0, 327685, 0, 0, 327686, 0, 0, 327687, 0, 0, 327688, 0, 0, 327690, 0, 0, 327691, 0, 0, 327692, 0, 0, 327693, 0, 0, 327694, 0, 0, 327696, 0, 0, 327697, 0, 0, 327698, 0, 0, 327699, 0, 0, 327700, 0, 0, 327701, 0, 0, 327702, 0, 0, 327703, 0, 0, 327704, 0, 0, 327705, 0, 0, 327706, 0, 0, 327707, 0, 0, 327708, 0, 0, 393220, 0, 0, 393221, 0, 0, 393222, 0, 0, 393223, 0, 0, 393224, 0, 0, 393226, 0, 0, 393227, 0, 0, 393228, 0, 0, 393229, 0, 0, 393230, 0, 0, 393232, 0, 0, 393233, 0, 0, 393234, 0, 0, 393235, 0, 0, 393236, 0, 0, 393237, 0, 0, 393238, 0, 0, 393239, 0, 0, 393240, 0, 0, 393241, 0, 0, 393242, 0, 0, 393243, 0, 0, 393244, 0, 0, 458758, 0, 0, 458764, 0, 0, 458768, 0, 0, 458769, 0, 0, 458770, 0, 0, 458771, 0, 0, 458772, 0, 0, 458773, 0, 0, 458774, 0, 0, 458775, 0, 0, 458776, 0, 0, 458777, 0, 0, 458778, 0, 0, 458779, 0, 0, 458780, 0, 0, 524289, 0, 0, 524290, 0, 0, 524291, 0, 0, 524294, 0, 0, 524300, 0, 0, 524304, 0, 0, 524305, 0, 0, 524306, 0, 0, 524307, 0, 0, 524308, 0, 0, 524309, 0, 0, 524310, 0, 0, 524311, 0, 0, 524312, 0, 0, 524313, 0, 0, 524314, 0, 0, 524315, 0, 0, 524316, 0, 0, 589825, 0, 0, 589826, 0, 0, 589827, 0, 0, 589828, 0, 0, 589829, 0, 0, 589830, 0, 0, 589831, 0, 0, 589832, 0, 0, 589833, 0, 0, 589834, 0, 0, 589835, 0, 0, 589836, 0, 0, 589837, 0, 0, 589838, 0, 0, 589839, 0, 0, 589840, 0, 0, 589841, 0, 0, 589842, 0, 0, 589843, 0, 0, 589844, 0, 0, 589845, 0, 0, 589846, 0, 0, 589847, 0, 0, 589848, 0, 0, 589849, 0, 0, 589850, 0, 0, 589851, 0, 0, 589852, 0, 0, 655361, 0, 0, 655362, 0, 0, 655363, 0, 0, 655366, 0, 0, 655372, 0, 0, 655376, 0, 0, 655377, 0, 0, 655378, 0, 0, 655379, 0, 0, 655380, 0, 0, 655381, 0, 0, 655382, 0, 0, 655383, 0, 0, 655384, 0, 0, 655385, 0, 0, 655386, 0, 0, 655387, 0, 0, 655388, 0, 0, 720902, 0, 0, 720908, 0, 0, 720912, 0, 0, 720913, 0, 0, 720914, 0, 0, 720915, 0, 0, 720916, 0, 0, 720917, 0, 0, 720918, 0, 0, 720919, 0, 0, 720920, 0, 0, 720921, 0, 0, 720922, 0, 0, 720923, 0, 0, 720924, 0, 0, 786436, 0, 0, 786437, 0, 0, 786438, 0, 0, 786439, 0, 0, 786440, 0, 0, 786442, 0, 0, 786443, 0, 0, 786444, 0, 0, 786445, 0, 0, 786446, 0, 0, 786448, 0, 0, 786449, 0, 0, 786450, 0, 0, 786451, 0, 0, 786452, 0, 0, 786453, 0, 0, 786454, 0, 0, 786455, 0, 0, 786456, 0, 0, 786457, 0, 0, 786458, 0, 0, 786459, 0, 0, 786460, 0, 0, 851972, 0, 0, 851973, 0, 0, 851974, 0, 0, 851975, 0, 0, 851976, 0, 0, 851978, 0, 0, 851979, 0, 0, 851980, 0, 0, 851981, 0, 0, 851982, 0, 0, 851984, 0, 0, 851985, 0, 0, 851986, 0, 0, 851987, 0, 0, 851988, 0, 0, 851989, 0, 0, 851990, 0, 0, 851991, 0, 0, 851992, 0, 0, 851993, 0, 0, 851994, 0, 0, 851995, 0, 0, 851996, 0, 0, 917508, 0, 0, 917509, 0, 0, 917510, 0, 0, 917511, 0, 0, 917512, 0, 0, 917514, 0, 0, 917515, 0, 0, 917516, 0, 0, 917517, 0, 0, 917518, 0, 0, 917520, 0, 0, 917521, 0, 0, 917522, 0, 0, 917523, 0, 0, 917524, 0, 0, 917525, 0, 0, 917526, 0, 0, 917527, 0, 0, 917528, 0, 0, 917529, 0, 0, 917530, 0, 0, 917531, 0, 0, 917532, 0, 0, 983044, 0, 0, 983045, 0, 0, 983046, 0, 0, 983047, 0, 0, 983048, 0, 0, 983050, 0, 0, 983051, 0, 0, 983052, 0, 0, 983053, 0, 0, 983054, 0, 0, 983056, 0, 0, 983057, 0, 0, 983058, 0, 0, 983059, 0, 0, 983060, 0, 0, 983061, 0, 0, 983062, 0, 0, 983063, 0, 0, 983064, 0, 0, 983065, 0, 0, 983066, 0, 0, 983067, 0, 0, 983068, 0, 0 )

[node name="Items" type="Node2D" parent="." index="1"]

_sections_unfolded = [ "Transform" ]

[node name="Orb2" parent="Items" index="0" instance=ExtResource( 3 )]

position = Vector2( 672, 224 )
mana_bonus = 6
health_bonus = 4

[node name="Orb" parent="Items" index="1" instance=ExtResource( 3 )]

position = Vector2( 288, 224 )
mana_bonus = 7
health_bonus = 1

[node name="SpeelTome" parent="Items" index="2" instance=ExtResource( 4 )]

position = Vector2( 288, 992 )
spell_name = "stun"

[node name="SpeelTome2" parent="Items" index="3" instance=ExtResource( 4 )]

position = Vector2( 672, 992 )
spell_name = "mega_shot"

[node name="Orb3" parent="Items" index="4" instance=ExtResource( 3 )]

position = Vector2( 992, 608 )
mana_bonus = 6
health_bonus = 6

[node name="Entities" type="Node2D" parent="." index="2"]

editor/display_folded = true

[node name="Enemies" type="Node2D" parent="Entities" index="0"]

editor/display_folded = true

[node name="GhostGuardian" parent="Entities/Enemies" index="0" instance=ExtResource( 5 )]

position = Vector2( 416, 608 )
rotation = -3.11512
mana_damage = 0.0
stun_damage = 0.0

[node name="GhostGuardian2" parent="Entities/Enemies" index="1" instance=ExtResource( 5 )]

position = Vector2( 800, 608 )
rotation = 3.14065
mana_damage = 0.0
stun_damage = 0.0

[node name="GhostGuardian3" parent="Entities/Enemies" index="2" instance=ExtResource( 5 )]

position = Vector2( 1760, 544 )
rotation = 2.95394
mana_damage = 0.0
stun_damage = 0.0

[node name="GhostGuardian4" parent="Entities/Enemies" index="3" instance=ExtResource( 5 )]

position = Vector2( 1752.63, 671.133 )
rotation = -2.86201
mana_damage = 0.0
stun_damage = 0.0

[node name="Knight" parent="Entities/Enemies" index="4" instance=ExtResource( 6 )]

position = Vector2( 416.115, 285.14 )
rotation = 1.5715
stun_damage = 0.0

[node name="Knight2" parent="Entities/Enemies" index="5" instance=ExtResource( 6 )]

position = Vector2( 412.369, 928.701 )
rotation = -1.5482
stun_damage = 0.0

[node name="Knight3" parent="Entities/Enemies" index="6" instance=ExtResource( 6 )]

position = Vector2( 800.322, 285.095 )
rotation = 1.57277
stun_damage = 0.0

[node name="Knight4" parent="Entities/Enemies" index="7" instance=ExtResource( 6 )]

position = Vector2( 799.542, 927.477 )
rotation = -1.56721
stun_damage = 0.0

[node name="Asssassin" parent="Entities/Enemies" index="8" instance=ExtResource( 7 )]

position = Vector2( 1472, 608 )
rotation = -3.133
stun_damage = 0.0

[node name="Walls" type="TileMap" parent="." index="3"]

mode = 0
tile_set = ExtResource( 8 )
cell_size = Vector2( 64, 64 )
cell_quadrant_size = 16
cell_custom_transform = Transform2D( 1, 0, 0, 1, 0, 0 )
cell_half_offset = 2
cell_tile_origin = 0
cell_y_sort = false
cell_clip_uv = false
collision_use_kinematic = false
collision_friction = 1.0
collision_bounce = 0.0
collision_layer = 1
collision_mask = 1
occluder_light_mask = 1
format = 1
tile_data = PoolIntArray( 196612, 8, 0, 196613, 0, 0, 196614, 0, 0, 196615, 0, 0, 196616, 10, 0, 196618, 14, 0, 196619, 0, 0, 196620, 0, 0, 196621, 0, 0, 196622, 10, 0, 196624, 8, 0, 196625, 0, 0, 196626, 0, 0, 196627, 0, 0, 196628, 0, 0, 196629, 0, 0, 196630, 0, 0, 196631, 0, 0, 196632, 0, 0, 196633, 0, 0, 196634, 0, 0, 196635, 0, 0, 196636, 10, 0, 262148, 1, 0, 262152, 3, 0, 262154, 1, 0, 262158, 3, 0, 262160, 1, 0, 262172, 3, 0, 327684, 1, 0, 327688, 3, 0, 327690, 1, 0, 327694, 7, 0, 327696, 1, 0, 327708, 3, 0, 393220, 11, 0, 393221, 2, 0, 393223, 2, 0, 393224, 12, 0, 393226, 11, 0, 393227, 2, 0, 393229, 2, 0, 393230, 12, 0, 393232, 1, 0, 393244, 3, 0, 458758, 13, 0, 458764, 13, 0, 458768, 1, 0, 458780, 3, 0, 524289, 8, 0, 524290, 0, 0, 524291, 10, 0, 524294, 13, 0, 524300, 13, 0, 524304, 1, 0, 524316, 3, 0, 589825, 1, 0, 589828, 9, 0, 589829, 9, 0, 589831, 9, 0, 589832, 9, 0, 589833, 15, 0, 589834, 9, 0, 589835, 9, 0, 589837, 9, 0, 589838, 9, 0, 589839, 9, 0, 589852, 3, 0, 655361, 11, 0, 655362, 2, 0, 655363, 12, 0, 655366, 13, 0, 655372, 13, 0, 655376, 1, 0, 655388, 3, 0, 720902, 13, 0, 720908, 13, 0, 720912, 1, 0, 720924, 3, 0, 786436, 8, 0, 786437, 0, 0, 786439, 0, 0, 786440, 10, 0, 786442, 8, 0, 786443, 0, 0, 786445, 0, 0, 786446, 10, 0, 786448, 1, 0, 786460, 3, 0, 851972, 1, 0, 851976, 7, 0, 851978, 1, 0, 851982, 3, 0, 851984, 1, 0, 851996, 7, 0, 917508, 1, 0, 917512, 3, 0, 917514, 1, 0, 917518, 3, 0, 917520, 1, 0, 917532, 3, 0, 983044, 11, 0, 983045, 2, 0, 983046, 2, 0, 983047, 2, 0, 983048, 12, 0, 983050, 11, 0, 983051, 2, 0, 983052, 2, 0, 983053, 2, 0, 983054, 12, 0, 983056, 11, 0, 983057, 2, 0, 983058, 2, 0, 983059, 2, 0, 983060, 2, 0, 983061, 2, 0, 983062, 2, 0, 983063, 2, 0, 983064, 2, 0, 983065, 2, 0, 983066, 2, 0, 983067, 2, 0, 983068, 12, 0 )

[node name="Stairs" parent="." index="4" instance=ExtResource( 9 )]

position = Vector2( 1760, 608 )

[node name="PlayerPos" type="Position2D" parent="." index="5"]

position = Vector2( 160, 608 )
_sections_unfolded = [ "Transform" ]


