[gd_scene load_steps=10 format=2]

[ext_resource path="res://scripts/Level.gd" type="Script" id=1]
[ext_resource path="res://Level01.tscn" type="PackedScene" id=2]
[ext_resource path="res://Floors.tres" type="TileSet" id=3]
[ext_resource path="res://Stairs.tscn" type="PackedScene" id=4]
[ext_resource path="res://SpellTome.tscn" type="PackedScene" id=5]
[ext_resource path="res://Orb.tscn" type="PackedScene" id=6]
[ext_resource path="res://GhostGuardian.tscn" type="PackedScene" id=7]
[ext_resource path="res://Knight.tscn" type="PackedScene" id=8]
[ext_resource path="res://Walls.tres" type="TileSet" id=9]


[node name="Level" type="Node2D"]

script = ExtResource( 1 )
_sections_unfolded = [ "Transform" ]
next_level = ExtResource( 2 )

[node name="Floor" type="TileMap" parent="." index="0"]

mode = 0
tile_set = ExtResource( 3 )
cell_size = Vector2( 64, 64 )
cell_quadrant_size = 16
cell_custom_transform = Transform2D( 1, 0, 0, 1, 0, 0 )
cell_half_offset = 2
cell_tile_origin = 0
cell_y_sort = false
cell_clip_uv = false
collision_use_kinematic = false
collision_friction = 1.0
collision_bounce = 0.0
collision_layer = 1
collision_mask = 1
occluder_light_mask = 1
format = 1
tile_data = PoolIntArray( -1, 1, 0, -65536, 1, 0, -65535, 1, 0, -65534, 1, 0, -65533, 1, 0, -65532, 1, 0, -65531, 1, 0, -65530, 1, 0, -65529, 1, 0, -65528, 1, 0, -65527, 1, 0, -65526, 1, 0, -65525, 1, 0, -65524, 1, 0, -65523, 1, 0, -65522, 1, 0, -65521, 1, 0, -65520, 1, 0, -65519, 1, 0, -65518, 1, 0, -65517, 1, 0, -65516, 1, 0, 65535, 1, 0, 0, 0, 0, 1, 0, 0, 2, 0, 0, 3, 0, 0, 4, 0, 0, 5, 0, 0, 6, 0, 0, 7, 0, 0, 8, 0, 0, 9, 0, 0, 10, 0, 0, 11, 0, 0, 12, 1, 0, 13, 0, 0, 14, 0, 0, 15, 0, 0, 16, 0, 0, 17, 0, 0, 18, 0, 0, 19, 0, 0, 20, 1, 0, 131071, 1, 0, 65536, 0, 0, 65537, 0, 0, 65538, 0, 0, 65539, 0, 0, 65540, 0, 0, 65541, 0, 0, 65542, 0, 0, 65543, 0, 0, 65544, 0, 0, 65545, 0, 0, 65546, 0, 0, 65547, 0, 0, 65548, 1, 0, 65549, 0, 0, 65550, 0, 0, 65551, 0, 0, 65552, 0, 0, 65553, 0, 0, 65554, 0, 0, 65555, 0, 0, 65556, 1, 0, 196607, 1, 0, 131072, 0, 0, 131073, 0, 0, 131074, 0, 0, 131075, 0, 0, 131076, 0, 0, 131077, 0, 0, 131078, 0, 0, 131079, 0, 0, 131080, 0, 0, 131081, 0, 0, 131082, 0, 0, 131083, 0, 0, 131084, 1, 0, 131085, 0, 0, 131086, 0, 0, 131087, 0, 0, 131088, 0, 0, 131089, 0, 0, 131090, 0, 0, 131091, 0, 0, 131092, 1, 0, 262143, 1, 0, 196608, 0, 0, 196609, 0, 0, 196610, 0, 0, 196611, 0, 0, 196612, 0, 0, 196613, 0, 0, 196614, 0, 0, 196615, 0, 0, 196616, 0, 0, 196617, 0, 0, 196618, 0, 0, 196619, 0, 0, 196620, 1, 0, 196621, 0, 0, 196622, 0, 0, 196623, 0, 0, 196624, 0, 0, 196625, 0, 0, 196626, 0, 0, 196627, 0, 0, 196628, 1, 0, 327677, 1, 0, 327678, 1, 0, 327679, 1, 0, 262144, 0, 0, 262145, 0, 0, 262146, 0, 0, 262147, 0, 0, 262148, 0, 0, 262149, 0, 0, 262150, 0, 0, 262151, 0, 0, 262152, 0, 0, 262153, 0, 0, 262154, 0, 0, 262155, 0, 0, 262156, 1, 0, 262157, 0, 0, 262158, 1, 0, 262159, 1, 0, 262160, 1, 0, 262161, 1, 0, 262162, 1, 0, 262163, 1, 0, 262164, 1, 0, 393213, 1, 0, 393214, 0, 0, 393215, 0, 0, 327680, 0, 0, 327681, 0, 0, 327682, 0, 0, 327683, 0, 0, 327684, 0, 0, 327685, 0, 0, 327686, 0, 0, 327687, 0, 0, 327688, 0, 0, 327689, 0, 0, 327690, 0, 0, 327691, 0, 0, 327692, 1, 0, 327693, 0, 0, 327694, 1, 0, 327695, 1, 0, 327696, 0, 0, 327697, 0, 0, 327698, 0, 0, 327699, 0, 0, 327700, 1, 0, 458749, 1, 0, 458750, 0, 0, 458751, 0, 0, 393216, 0, 0, 393217, 0, 0, 393218, 0, 0, 393219, 0, 0, 393220, 0, 0, 393221, 0, 0, 393222, 0, 0, 393223, 0, 0, 393224, 0, 0, 393225, 0, 0, 393226, 0, 0, 393227, 0, 0, 393228, 0, 0, 393229, 0, 0, 393230, 0, 0, 393231, 0, 0, 393232, 0, 0, 393233, 0, 0, 393234, 0, 0, 393235, 0, 0, 393236, 1, 0, 524285, 1, 0, 524286, 0, 0, 524287, 0, 0, 458752, 0, 0, 458753, 0, 0, 458754, 0, 0, 458755, 0, 0, 458756, 0, 0, 458757, 0, 0, 458758, 0, 0, 458759, 0, 0, 458760, 0, 0, 458761, 0, 0, 458762, 0, 0, 458763, 0, 0, 458764, 1, 0, 458765, 0, 0, 458766, 1, 0, 458767, 1, 0, 458768, 0, 0, 458769, 0, 0, 458770, 0, 0, 458771, 0, 0, 458772, 1, 0, 589821, 1, 0, 589822, 1, 0, 589823, 1, 0, 524288, 0, 0, 524289, 0, 0, 524290, 0, 0, 524291, 0, 0, 524292, 0, 0, 524293, 0, 0, 524294, 0, 0, 524295, 0, 0, 524296, 0, 0, 524297, 0, 0, 524298, 0, 0, 524299, 0, 0, 524300, 1, 0, 524301, 0, 0, 524302, 1, 0, 524303, 1, 0, 524304, 1, 0, 524305, 1, 0, 524306, 1, 0, 524307, 1, 0, 524308, 1, 0, 655359, 1, 0, 589824, 0, 0, 589825, 0, 0, 589826, 0, 0, 589827, 0, 0, 589828, 0, 0, 589829, 0, 0, 589830, 0, 0, 589831, 0, 0, 589832, 0, 0, 589833, 0, 0, 589834, 0, 0, 589835, 0, 0, 589836, 1, 0, 589837, 0, 0, 589838, 0, 0, 589839, 0, 0, 589840, 0, 0, 589841, 0, 0, 589842, 0, 0, 589843, 0, 0, 589844, 1, 0, 720895, 1, 0, 655360, 0, 0, 655361, 0, 0, 655362, 0, 0, 655363, 0, 0, 655364, 0, 0, 655365, 0, 0, 655366, 0, 0, 655367, 0, 0, 655368, 0, 0, 655369, 0, 0, 655370, 0, 0, 655371, 0, 0, 655372, 1, 0, 655373, 0, 0, 655374, 0, 0, 655375, 0, 0, 655376, 0, 0, 655377, 0, 0, 655378, 0, 0, 655379, 0, 0, 655380, 1, 0, 786431, 1, 0, 720896, 0, 0, 720897, 0, 0, 720898, 0, 0, 720899, 0, 0, 720900, 0, 0, 720901, 0, 0, 720902, 0, 0, 720903, 0, 0, 720904, 0, 0, 720905, 0, 0, 720906, 0, 0, 720907, 0, 0, 720908, 1, 0, 720909, 0, 0, 720910, 0, 0, 720911, 0, 0, 720912, 0, 0, 720913, 0, 0, 720914, 0, 0, 720915, 0, 0, 720916, 1, 0, 851967, 1, 0, 786432, 0, 0, 786433, 0, 0, 786434, 0, 0, 786435, 0, 0, 786436, 0, 0, 786437, 0, 0, 786438, 0, 0, 786439, 0, 0, 786440, 0, 0, 786441, 0, 0, 786442, 0, 0, 786443, 0, 0, 786444, 1, 0, 786445, 0, 0, 786446, 0, 0, 786447, 0, 0, 786448, 0, 0, 786449, 0, 0, 786450, 0, 0, 786451, 0, 0, 786452, 1, 0, 917503, 1, 0, 851968, 1, 0, 851969, 1, 0, 851970, 1, 0, 851971, 1, 0, 851972, 1, 0, 851973, 1, 0, 851974, 1, 0, 851975, 1, 0, 851976, 1, 0, 851977, 1, 0, 851978, 1, 0, 851979, 1, 0, 851980, 1, 0, 851981, 1, 0, 851982, 1, 0, 851983, 1, 0, 851984, 1, 0, 851985, 1, 0, 851986, 1, 0, 851987, 1, 0, 851988, 1, 0 )

[node name="Stairs" parent="." index="1" instance=ExtResource( 4 )]

position = Vector2( 1184, 416 )

[node name="Items" type="Node2D" parent="." index="2"]

[node name="SpeelTome-spark" parent="Items" index="0" instance=ExtResource( 5 )]

position = Vector2( 672, 288 )
scale = Vector2( 0.96875, 1 )
_sections_unfolded = [ "Collision", "Transform" ]
spell_name = "spell_bullet"

[node name="SpeelTome" parent="Items" index="1" instance=ExtResource( 5 )]

position = Vector2( -32, 352 )
spell_name = "heal_self"

[node name="Orb" parent="Items" index="2" instance=ExtResource( 6 )]

position = Vector2( 431, 227 )
mana_bonus = 3

[node name="SpeelTome-ms" parent="Items" index="3" instance=ExtResource( 5 )]

position = Vector2( 1248, 800 )
spell_name = "mana_serifice"

[node name="Orb2" parent="Items" index="4" instance=ExtResource( 6 )]

position = Vector2( 1248, 608 )
mana_bonus = 7
health_bonus = 5

[node name="Orb3" parent="Items" index="5" instance=ExtResource( 6 )]

position = Vector2( 726, 781 )
mana_bonus = 1

[node name="Orb4" parent="Items" index="6" instance=ExtResource( 6 )]

position = Vector2( 742, 801 )
mana_bonus = 1

[node name="Orb5" parent="Items" index="7" instance=ExtResource( 6 )]

position = Vector2( 714, 813 )
mana_bonus = 1

[node name="Orb6" parent="Items" index="8" instance=ExtResource( 6 )]

position = Vector2( 695, 795 )
mana_bonus = 1

[node name="Orb7" parent="Items" index="9" instance=ExtResource( 6 )]

position = Vector2( 714, 794 )
mana_bonus = 1

[node name="Orb8" parent="Items" index="10" instance=ExtResource( 6 )]

position = Vector2( 1064, 124 )
mana_bonus = 3
health_bonus = 1

[node name="SpeelTome2" parent="Items" index="11" instance=ExtResource( 5 )]

position = Vector2( 1248, 416 )
spell_name = "triple_shot"

[node name="Entities" type="Node2D" parent="." index="3"]

editor/display_folded = true
_sections_unfolded = [ "Transform" ]
__meta__ = {
"_edit_group_": true
}

[node name="Enemies" type="Node2D" parent="Entities" index="0"]

editor/display_folded = true
_sections_unfolded = [ "Transform" ]

[node name="GhostGuardian3" parent="Entities/Enemies" index="0" instance=ExtResource( 7 )]

position = Vector2( 544.679, 246.855 )
rotation = -1.57497
mana_damage = 0.0
stun_damage = 0.0

[node name="GhostGuardian" parent="Entities/Enemies" index="1" instance=ExtResource( 7 )]

position = Vector2( 158.308, 416 )
rotation = 3.14159
_sections_unfolded = [ "Collision", "Transform" ]
mana_damage = 0.0
stun_damage = 0.0

[node name="GhostGuardian2" parent="Entities/Enemies" index="2" instance=ExtResource( 7 )]

position = Vector2( -14.8869, 500.189 )
rotation = 4.29832
_sections_unfolded = [ "Collision", "Transform" ]
mana_damage = 0.0
stun_damage = 0.0

[node name="Knight" parent="Entities/Enemies" index="3" instance=ExtResource( 8 )]

position = Vector2( 1184.14, 416.258 )
rotation = 3.14454
stun_damage = 0.0

[node name="Knight2" parent="Entities/Enemies" index="4" instance=ExtResource( 8 )]

position = Vector2( 1022.58, 743.092 )
rotation = 0.645867
stun_damage = 0.0

[node name="Knight3" parent="Entities/Enemies" index="5" instance=ExtResource( 8 )]

position = Vector2( 1120, 736 )
rotation = -2.80698
stun_damage = 0.0

[node name="Knight4" parent="Entities/Enemies" index="6" instance=ExtResource( 8 )]

position = Vector2( 736.912, 649.031 )
rotation = -4.64443
stun_damage = 0.0

[node name="GhostGuardian4" parent="Entities/Enemies" index="7" instance=ExtResource( 7 )]

position = Vector2( 542, 751 )
rotation = -1.55887
mana_damage = 0.0
stun_damage = 0.0

[node name="GhostGuardian5" parent="Entities/Enemies" index="8" instance=ExtResource( 7 )]

position = Vector2( 662.81, 802.264 )
rotation = -3.13747
mana_damage = 0.0
stun_damage = 0.0

[node name="Walls" type="TileMap" parent="." index="4"]

mode = 0
tile_set = ExtResource( 9 )
cell_size = Vector2( 64, 64 )
cell_quadrant_size = 16
cell_custom_transform = Transform2D( 1, 0, 0, 1, 0, 0 )
cell_half_offset = 2
cell_tile_origin = 0
cell_y_sort = false
cell_clip_uv = false
collision_use_kinematic = false
collision_friction = 1.0
collision_bounce = 0.0
collision_layer = 1
collision_mask = 1
occluder_light_mask = 1
format = 1
tile_data = PoolIntArray( 0, 8, 0, 1, 9, 0, 2, 9, 0, 3, 0, 0, 4, 9, 0, 5, 9, 0, 6, 9, 0, 7, 9, 0, 8, 4, 0, 9, 9, 0, 10, 9, 0, 11, 10, 0, 13, 8, 0, 14, 0, 0, 15, 0, 0, 16, 0, 0, 17, 0, 0, 18, 0, 0, 19, 10, 0, 65536, 13, 0, 65537, 20, 0, 65538, 9, 0, 65540, 9, 0, 65541, 22, 0, 65542, 20, 0, 65543, 9, 0, 65545, 9, 0, 65546, 22, 0, 65547, 13, 0, 65549, 1, 0, 65555, 3, 0, 131072, 13, 0, 131073, 20, 0, 131074, 9, 0, 131076, 9, 0, 131077, 26, 0, 131078, 20, 0, 131079, 9, 0, 131081, 9, 0, 131082, 22, 0, 131083, 13, 0, 131085, 1, 0, 131091, 3, 0, 196608, 18, 0, 196609, 20, 0, 196610, 9, 0, 196612, 9, 0, 196613, 22, 0, 196614, 20, 0, 196615, 9, 0, 196617, 9, 0, 196618, 22, 0, 196619, 13, 0, 196621, 1, 0, 196622, 2, 0, 196623, 2, 0, 196624, 6, 0, 196625, 2, 0, 196626, 2, 0, 196627, 12, 0, 262144, 13, 0, 262145, 20, 0, 262146, 9, 0, 262148, 9, 0, 262149, 22, 0, 262150, 20, 0, 262151, 9, 0, 262153, 9, 0, 262154, 22, 0, 262155, 13, 0, 262157, 13, 0, 393214, 8, 0, 393215, 16, 0, 327680, 11, 0, 327681, 9, 0, 327682, 9, 0, 327684, 9, 0, 327685, 9, 0, 327686, 9, 0, 327687, 9, 0, 327689, 9, 0, 327690, 9, 0, 327691, 12, 0, 327693, 13, 0, 327696, 8, 0, 327697, 0, 0, 327698, 0, 0, 327699, 10, 0, 458750, 1, 0, 393216, 9, 0, 393217, 9, 0, 393218, 9, 0, 393220, 9, 0, 393221, 9, 0, 393222, 9, 0, 393223, 9, 0, 393225, 9, 0, 393226, 9, 0, 393227, 9, 0, 393228, 15, 0, 393230, 9, 0, 393231, 9, 0, 393235, 3, 0, 524286, 17, 0, 524287, 12, 0, 458752, 8, 0, 458753, 9, 0, 458754, 9, 0, 458756, 9, 0, 458757, 9, 0, 458758, 9, 0, 458759, 9, 0, 458761, 9, 0, 458762, 9, 0, 458763, 16, 0, 458765, 13, 0, 458768, 11, 0, 458769, 2, 0, 458770, 2, 0, 458771, 12, 0, 524288, 13, 0, 524289, 20, 0, 524290, 9, 0, 524292, 9, 0, 524293, 22, 0, 524294, 20, 0, 524295, 9, 0, 524297, 9, 0, 524298, 22, 0, 524299, 13, 0, 524301, 13, 0, 589824, 13, 0, 589825, 20, 0, 589826, 9, 0, 589828, 9, 0, 589829, 22, 0, 589830, 20, 0, 589831, 9, 0, 589833, 9, 0, 589834, 22, 0, 589835, 13, 0, 589837, 1, 0, 589838, 0, 0, 589839, 0, 0, 589840, 0, 0, 589841, 0, 0, 589842, 0, 0, 589843, 16, 0, 655360, 13, 0, 655361, 20, 0, 655362, 9, 0, 655364, 9, 0, 655365, 22, 0, 655366, 20, 0, 655367, 9, 0, 655369, 9, 0, 655370, 22, 0, 655371, 18, 0, 655373, 1, 0, 655379, 3, 0, 720896, 13, 0, 720897, 20, 0, 720898, 9, 0, 720900, 9, 0, 720901, 22, 0, 720902, 20, 0, 720903, 9, 0, 720905, 9, 0, 720906, 22, 0, 720907, 13, 0, 720909, 1, 0, 720915, 3, 0, 786432, 11, 0, 786433, 9, 0, 786434, 9, 0, 786435, 2, 0, 786436, 9, 0, 786437, 9, 0, 786438, 9, 0, 786439, 9, 0, 786440, 2, 0, 786441, 9, 0, 786442, 9, 0, 786443, 12, 0, 786445, 11, 0, 786446, 6, 0, 786447, 6, 0, 786448, 6, 0, 786449, 6, 0, 786450, 6, 0, 786451, 19, 0 )
__meta__ = {
"_edit_group_": true
}

[node name="PlayerPos" type="Position2D" parent="." index="5"]

position = Vector2( 86, 98 )


