[gd_scene load_steps=4 format=2]

[ext_resource path="res://DamagingEntity.tscn" type="PackedScene" id=1]
[ext_resource path="res://scripts/SpelProjectile.gd" type="Script" id=2]
[ext_resource path="res://images/spell_proj.png" type="Texture" id=3]

[node name="SpellProjectile" instance=ExtResource( 1 )]
collision_layer = 1
collision_mask = 1
script = ExtResource( 2 )
speed = 80
damage = 2.0

[node name="AoE" type="Area2D" parent="Damagers" index="0"]
collision_layer = 16
collision_mask = 16

[node name="CollisionPolygon2D" type="CollisionPolygon2D" parent="Damagers/AoE" index="0"]
position = Vector2( 0.0365992, -0.0365994 )
polygon = PoolVector2Array( -4.0366, -3.9634, 0.963401, 0.0365994, 0.963401, 1.0366, -4.0366, 5.0366, -6.0366, 5.0366, -6.0366, -3.9634 )

[node name="Sprite" parent="." index="1"]
texture = ExtResource( 3 )

[node name="CollisionPolygon2D" parent="." index="2"]
polygon = PoolVector2Array( -1.01254, 0.526509, -5, -2, -5, 3 )

[node name="DecayTimer" type="Timer" parent="." index="4"]
wait_time = 0.1
one_shot = true

[connection signal="timeout" from="DecayTimer" to="." method="_on_DecayTimer_timeout"]
