[gd_scene load_steps=4 format=2]

[ext_resource path="res://scripts/Tile.gd" type="Script" id=1]
[ext_resource path="res://shaders/floor.tres" type="Material" id=2]
[ext_resource path="res://images/ground.png" type="Texture" id=3]

[node name="Tile" type="Node2D"]
script = ExtResource( 1 )
__meta__ = {
"_edit_group_": true
}

[node name="FloorSprite" type="Sprite" parent="."]
material = ExtResource( 2 )
texture = ExtResource( 3 )
