[gd_scene load_steps=6 format=2]

[ext_resource path="res://Tutorial_base.tscn" type="PackedScene" id=1]
[ext_resource path="res://Tutorial_04.tscn" type="PackedScene" id=2]
[ext_resource path="res://tutorial/tut_04_spell_scroll.png" type="Texture" id=3]
[ext_resource path="res://adventpro-medium.ttf" type="DynamicFontData" id=4]

[sub_resource type="DynamicFont" id=1]

size = 32
use_mipmaps = false
use_filter = false
font_data = ExtResource( 4 )
_sections_unfolded = [ "Font", "Settings" ]

[node name="Tutorial_03" index="0" instance=ExtResource( 1 )]

nextScene = ExtResource( 2 )

[node name="TextureRect" type="TextureRect" parent="." index="1"]

anchor_left = 0.0
anchor_top = 0.0
anchor_right = 0.0
anchor_bottom = 0.0
margin_top = 128.0
margin_right = 1024.0
margin_bottom = 728.0
rect_scale = Vector2( 0.5, 0.5 )
rect_pivot_offset = Vector2( 0, 0 )
rect_clip_content = false
mouse_filter = 1
mouse_default_cursor_shape = 0
size_flags_horizontal = 1
size_flags_vertical = 1
texture = ExtResource( 3 )
stretch_mode = 0
_sections_unfolded = [ "Rect" ]

[node name="Label" type="Label" parent="." index="2"]

anchor_left = 0.0
anchor_top = 0.0
anchor_right = 0.0
anchor_bottom = 0.0
margin_left = 544.0
margin_top = 128.0
margin_right = 890.0
margin_bottom = 377.0
rect_pivot_offset = Vector2( 0, 0 )
rect_clip_content = false
mouse_filter = 2
mouse_default_cursor_shape = 0
size_flags_horizontal = 1
size_flags_vertical = 4
custom_fonts/font = SubResource( 1 )
custom_colors/font_color = Color( 0, 0, 0, 1 )
text = "Since you have spent long
time in this prison you
can't recall any spells. But
you can remind yourself 
(or relearn them, if you wish)
by reading these scrolls"
percent_visible = 1.0
lines_skipped = 0
max_lines_visible = -1
_sections_unfolded = [ "custom_colors", "custom_fonts" ]


