[gd_scene load_steps=4 format=2]

[ext_resource path="res://scripts/CanvasLayer.gd" type="Script" id=1]
[ext_resource path="res://adventpro-medium.ttf" type="DynamicFontData" id=2]

[sub_resource type="DynamicFont" id=1]

size = 68
use_mipmaps = false
use_filter = false
font_data = ExtResource( 2 )
_sections_unfolded = [ "Extra Spacing", "Font", "Settings" ]

[node name="Tutorial_base" type="CanvasLayer" index="0"]

layer = 1
offset = Vector2( 0, 0 )
rotation = 0.0
scale = Vector2( 1, 1 )
transform = Transform2D( 1, 0, 0, 1, 0, 0 )
script = ExtResource( 1 )
nextScene = null

[node name="ColorRect" type="ColorRect" parent="." index="0"]

anchor_left = 0.0
anchor_top = 0.0
anchor_right = 1.0
anchor_bottom = 1.0
rect_pivot_offset = Vector2( 0, 0 )
rect_clip_content = false
mouse_filter = 0
mouse_default_cursor_shape = 0
size_flags_horizontal = 1
size_flags_vertical = 1
color = Color( 1, 0.931641, 0.75, 1 )

[node name="Label" type="Label" parent="ColorRect" index="0"]

anchor_left = 0.5
anchor_top = 0.0
anchor_right = 0.5
anchor_bottom = 0.0
margin_left = -97.0
margin_right = 97.0
margin_bottom = 82.0
rect_pivot_offset = Vector2( 0, 0 )
rect_clip_content = false
mouse_filter = 2
mouse_default_cursor_shape = 0
size_flags_horizontal = 1
size_flags_vertical = 4
custom_fonts/font = SubResource( 1 )
custom_colors/font_color = Color( 0, 0, 0, 1 )
text = "Tutorial"
percent_visible = 1.0
lines_skipped = 0
max_lines_visible = -1
_sections_unfolded = [ "custom_colors", "custom_fonts" ]

[node name="Button" type="Button" parent="ColorRect" index="1"]

anchor_left = 0.0
anchor_top = 1.0
anchor_right = 0.0
anchor_bottom = 1.0
margin_left = 32.0
margin_top = -56.0
margin_right = 167.0
margin_bottom = -36.0
rect_pivot_offset = Vector2( 0, 0 )
rect_clip_content = false
focus_mode = 2
mouse_filter = 0
mouse_default_cursor_shape = 0
size_flags_horizontal = 1
size_flags_vertical = 1
toggle_mode = false
enabled_focus_mode = 2
shortcut = null
group = null
text = "Back to Main menu"
flat = false
align = 1

[node name="Button2" type="Button" parent="ColorRect" index="2"]

anchor_left = 1.0
anchor_top = 1.0
anchor_right = 1.0
anchor_bottom = 1.0
margin_left = -64.0
margin_top = -56.0
margin_right = -22.0
margin_bottom = -36.0
rect_pivot_offset = Vector2( 0, 0 )
rect_clip_content = false
focus_mode = 2
mouse_filter = 0
mouse_default_cursor_shape = 0
size_flags_horizontal = 1
size_flags_vertical = 1
toggle_mode = false
enabled_focus_mode = 2
shortcut = null
group = null
text = "Next"
flat = false
align = 1

[node name="Button3" type="Button" parent="ColorRect" index="3"]

anchor_left = 0.5
anchor_top = 1.0
anchor_right = 0.5
anchor_bottom = 1.0
margin_left = -32.0
margin_top = -56.0
margin_right = 56.0
margin_bottom = -36.0
rect_pivot_offset = Vector2( 0, 0 )
rect_clip_content = false
focus_mode = 2
mouse_filter = 0
mouse_default_cursor_shape = 0
size_flags_horizontal = 1
size_flags_vertical = 1
toggle_mode = false
enabled_focus_mode = 2
shortcut = null
group = null
text = "Skip tutorial"
flat = false
align = 1

[connection signal="pressed" from="ColorRect/Button" to="." method="_on_Button_pressed"]

[connection signal="pressed" from="ColorRect/Button2" to="." method="_on_Button2_pressed"]

[connection signal="pressed" from="ColorRect/Button3" to="." method="_on_Button3_pressed"]


